Quarto 데이터 사이언스 - 한글 인코딩
…
coderange <- c(33:126)

ascii_table <- tibble(
 십진수   = coderange,
 십육진수 = as.raw(coderange),
 문자     = rawToChar(as.raw(coderange), multiple=TRUE),
 이진수   = pryr::bits(문자, split = TRUE)
) %>% 
  relocate(문자, .before = 십진수)

ascii_table %>% 
  slice_sample(n=30)

# A tibble: 30 × 4
   문자  십진수 십육진수 이진수  
   <chr>  <int> <raw>    <chr>   
 1 "I"       73 49       01001001
 2 "3"       51 33       00110011
 3 "z"      122 7a       01111010
 4 "S"       83 53       01010011
 5 "#"       35 23       00100011
 6 ">"       62 3e       00111110
 7 "\\"      92 5c       01011100
 8 "b"       98 62       01100010
 9 "w"      119 77       01110111
10 "="       61 3d       00111101
# … with 20 more rows
…
extended_ascii_table <- tibble(
 십진수   = coderange,
 십육진수 = as.raw(coderange),
 문자     = rawToChar(as.raw(coderange), multiple=TRUE),
 이진수   = pryr::bits(문자, split = TRUE)
) %>% 
  relocate(문자, .before = 십진수) %>% 
  mutate(문자 = str_conv(문자, encoding = "latin-1")) 

extended_ascii_table  %>% 
  slice_sample(n=30)

# A tibble: 30 × 4
   문자  십진수 십육진수 이진수  
   <chr>  <int> <raw>    <chr>   
 1 ¤        164 a4       10100100
 2 ÷        247 f7       11110111
 3 æ        230 e6       11100110
 4 Þ        222 de       11011110
 5 ®        174 ae       10101110
 6 Ý        221 dd       11011101
 7 Ô        212 d4       11010100
 8 Ä        196 c4       11000100
 9 ¸        184 b8       10111000
10 ç        231 e7       11100111
# … with 20 more rows
…
