Quarto 데이터 사이언스 – index
…
5564 = 55 – 64 years old

65 = 65 or older

성별

males (m)

females (f)

library(tidyverse)
tidyr::who 

# A tibble: 7,240 × 60
   country     iso2  iso3   year new_s…¹ new_s…² new_s…³ new_s…⁴ new_s…⁵ new_s…⁶
   <chr>       <chr> <chr> <int>   <int>   <int>   <int>   <int>   <int>   <int>
 1 Afghanistan AF    AFG    1980      NA      NA      NA      NA      NA      NA
 2 Afghanistan AF    AFG    1981      NA      NA      NA      NA      NA      NA
 3 Afghanistan AF    AFG    1982      NA      NA      NA      NA      NA      NA
 4 Afghanistan AF    AFG    1983      NA      NA      NA      NA      NA      NA
 5 Afghanistan AF    AFG    1984      NA      NA      NA      NA      NA      NA
 6 Afghanistan AF    AFG    1985      NA      NA      NA      NA      NA      NA
 7 Afghanistan AF    AFG    1986      NA      NA      NA      NA      NA      NA
 8 Afghanistan AF    AFG    1987      NA      NA      NA      NA      NA      NA
 9 Afghanistan AF    AFG    1988      NA      NA      NA      NA      NA      NA
10 Afghanistan AF    AFG    1989      NA      NA      NA      NA      NA      NA
# … with 7,230 more rows, 50 more variables: new_sp_m65 <int>,
#   new_sp_f014 <int>, new_sp_f1524 <int>, new_sp_f2534 <int>,
#   new_sp_f3544 <int>, new_sp_f4554 <int>, new_sp_f5564 <int>,
#   new_sp_f65 <int>, new_sn_m014 <int>, new_sn_m1524 <int>,
#   new_sn_m2534 <int>, new_sn_m3544 <int>, new_sn_m4554 <int>,
#   new_sn_m5564 <int>, new_sn_m65 <int>, new_sn_f014 <int>,
#   new_sn_f1524 <int>, new_sn_f2534 <int>, new_sn_f3544 <int>, …
who %>%
  pivot_longer(
    cols = new_sp_m014:newrel_f65, 
    names_to = "key", 
    values_to = "cases", 
    values_drop_na = TRUE
  ) %>% 
  mutate(
    key = stringr::str_replace(key, "newrel", "new_rel")
  ) %>%
  separate(key, c("new", "var", "sexage")) %>% 
  select(-new, -iso2, -iso3) %>% 
  separate(sexage, c("sex", "age"), sep = 1)

# A tibble: 76,046 × 6
   country      year var   sex   age   cases
   <chr>       <int> <chr> <chr> <chr> <int>
 1 Afghanistan  1997 sp    m     014       0
 2 Afghanistan  1997 sp    m     1524     10
 3 Afghanistan  1997 sp    m     2534      6
 4 Afghanistan  1997 sp    m     3544      3
 5 Afghanistan  1997 sp    m     4554      5
 6 Afghanistan  1997 sp    m     5564      2
 7 Afghanistan  1997 sp    m     65        0
 8 Afghanistan  1997 sp    f     014       5
 9 Afghanistan  1997 sp    f     1524     38
10 Afghanistan  1997 sp    f     2534     36
# … with 76,036 more rows
…
